digraph g {
__start0 [label="" shape="none"];
	graph [rankdir = "LR"]

	s0 [shape="circle" label="0"];
	s1 [shape="circle" label="1"];
	s2 [shape="circle" label="2"];
	s3 [shape="circle" label="3"];
	s0 -> s1 [label="REQUEST_CODE / 200"];
	s0 -> s0 [label="CONFIRM_CODE / 403"];
	s0 -> s0 [label="REGISTER_KEYS / 401"];
	s0 -> s0 [label="GET_CONTACTS / 401"];
	s0 -> s0 [label="GET_PREKEY_BUNDLE / 401"];
	s1 -> s1 [label="REQUEST_CODE / 200"];
	s1 -> s2 [label="CONFIRM_CODE / 204"];
	s1 -> s1 [label="REGISTER_KEYS / 401"];
	s1 -> s1 [label="GET_CONTACTS / 401"];
	s1 -> s1 [label="GET_PREKEY_BUNDLE / 401"];
	s2 -> s3 [label="REQUEST_CODE / 200"];
	s2 -> s2 [label="CONFIRM_CODE / 403"];
	s2 -> s2 [label="REGISTER_KEYS / 204"];
	s2 -> s2 [label="GET_CONTACTS / 200"];
	s2 -> s2 [label="GET_PREKEY_BUNDLE / 200"];
	s3 -> s3 [label="REQUEST_CODE / 200"];
	s3 -> s2 [label="CONFIRM_CODE / 204"];
	s3 -> s3 [label="REGISTER_KEYS / 204"];
	s3 -> s3 [label="GET_CONTACTS / 200"];
	s3 -> s3 [label="GET_PREKEY_BUNDLE / 200"];

__start0 -> s0;
}
